PHC 6701: R for Data Science - Lesson 13: Exploring Data with the Tidyverse
…
Rows: 458 Columns: 2
── Column specification ────────────────────────────────────────────────────────
Delimiter: ","
chr (2): Column Name, Label

ℹ Use `spec()` to retrieve the full column specification for this data.
ℹ Specify the column types or set `show_col_types = FALSE` to quiet this message.

Inspect Data Sets

Let’s get an idea of what is in these data sets:

FLallZIP_df

# A tibble: 1,013 × 459
   GEO_ID      NAME  S2201_C01_001E S2201_C01_001M S2201_C01_002E S2201_C01_002M
   <chr>       <chr>          <dbl>          <dbl>          <dbl>          <dbl>
 1 860Z200US3… ZCTA…          11090            672           5276            611
 2 860Z200US3… ZCTA…           2354            378           1300            272
 3 860Z200US3… ZCTA…           1383            231            574            106
 4 860Z200US3… ZCTA…           5480            430           2172            294
 5 860Z200US3… ZCTA…              5             11              5             11
 6 860Z200US3… ZCTA…           7220            403           3636            322
 7 860Z200US3… ZCTA…           8127            544           3524            323
 8 860Z200US3… ZCTA…              0             14              0             14
 9 860Z200US3… ZCTA…           1915            425           1096            177
10 860Z200US3… ZCTA…          16526            728           9846            654
# ℹ 1,003 more rows
# ℹ 453 more variables: S2201_C01_003E <dbl>, S2201_C01_003M <dbl>,
#   S2201_C01_004E <dbl>, S2201_C01_004M <dbl>, S2201_C01_005E <dbl>,
#   S2201_C01_005M <dbl>, S2201_C01_006E <dbl>, S2201_C01_006M <dbl>,
#   S2201_C01_007E <dbl>, S2201_C01_007M <dbl>, S2201_C01_008E <dbl>,
#   S2201_C01_008M <dbl>, S2201_C01_009E <dbl>, S2201_C01_009M <dbl>,
#   S2201_C01_010E <dbl>, S2201_C01_010M <dbl>, S2201_C01_011E <dbl>, …

There are 457 columns of information (459 - 2 index columns), and it looks like all of these columns have bizarre codes for their names.

Now for the metadata:

FLmetadata_df

# A tibble: 458 × 2
   `Column Name`  Label                                                         
   <chr>          <chr>                                                         
 1 GEO_ID         Geography                                                     
 2 NAME           Geographic Area Name                                          
 3 S2201_C01_001E Estimate!!Total!!Households                                   
 4 S2201_C01_001M Margin of Error!!Total!!Households                            
 5 S2201_C01_002E Estimate!!Total!!Households!!With one or more people in the h…
 6 S2201_C01_002M Margin of Error!!Total!!Households!!With one or more people i…
 7 S2201_C01_003E Estimate!!Total!!Households!!No people in the household 60 ye…
 8 S2201_C01_003M Margin of Error!!Total!!Households!!No people in the househol…
 9 S2201_C01_004E Estimate!!Total!!Households!!Married-couple family            
10 S2201_C01_004M Margin of Error!!Total!!Households!!Married-couple family     
# ℹ 448 more rows
…
.
FALSE  TRUE 
  434    24 

As we can see, this function returns a logical vector indicating if the string "Hispanic" is in the elements of the Label column, then the table() function tells us this information is present in only a handful of the columns. By itself, this isn’t helpful: we don’t know what the strings are, and we certainly don’t know which rows of the tibble they belong to. But at least we know that we have some data on Hispanic households.

To solve these problems, we combine str_detect() with mutate() and filter():

FLmetadata_df %>% 
  mutate(Hispanic_logi = str_detect(Label, "Hispanic")) %>% 
  filter(Hispanic_logi) %>% 
  select(-Hispanic_logi)

# A tibble: 24 × 2
   `Column Name`  Label                                                         
   <chr>          <chr>                                                         
 1 S2201_C01_032E Estimate!!Total!!Households!!RACE AND HISPANIC OR LATINO ORIG…
 2 S2201_C01_032M Margin of Error!!Total!!Households!!RACE AND HISPANIC OR LATI…
 3 S2201_C01_033E Estimate!!Total!!Households!!RACE AND HISPANIC OR LATINO ORIG…
 4 S2201_C01_033M Margin of Error!!Total!!Households!!RACE AND HISPANIC OR LATI…
 5 S2201_C02_032E Estimate!!Percent!!Households!!RACE AND HISPANIC OR LATINO OR…
 6 S2201_C02_032M Margin of Error!!Percent!!Households!!RACE AND HISPANIC OR LA…
 7 S2201_C02_033E Estimate!!Percent!!Households!!RACE AND HISPANIC OR LATINO OR…
 8 S2201_C02_033M Margin of Error!!Percent!!Households!!RACE AND HISPANIC OR LA…
 9 S2201_C03_032E Estimate!!Households receiving food stamps/SNAP!!Households!!…
10 S2201_C03_032M Margin of Error!!Households receiving food stamps/SNAP!!House…
# ℹ 14 more rows
…
String Cases

Because R is case sensitive, the string "Hispanic" and "HISPANIC" are not the same. We can use the str_to_upper() and str_to_lower() functions to convert all of the string data to the same case (so our searches don’t fail). In this case, we have to make sure to save the new tibble:

FLmetadata2_df <- 
  FLmetadata_df %>% 
  mutate(Label = str_to_lower(Label))

# Did it work?
FLmetadata2_df %>% 
  mutate(Hispanic_logi = str_detect(Label, "hispanic")) %>% 
  filter(Hispanic_logi) %>% 
  select(-Hispanic_logi)

# A tibble: 108 × 2
   `Column Name`  Label                                                         
   <chr>          <chr>                                                         
 1 S2201_C01_025E estimate!!total!!households!!race and hispanic or latino orig…
 2 S2201_C01_025M margin of error!!total!!households!!race and hispanic or lati…
 3 S2201_C01_026E estimate!!total!!households!!race and hispanic or latino orig…
 4 S2201_C01_026M margin of error!!total!!households!!race and hispanic or lati…
 5 S2201_C01_027E estimate!!total!!households!!race and hispanic or latino orig…
 6 S2201_C01_027M margin of error!!total!!households!!race and hispanic or lati…
 7 S2201_C01_028E estimate!!total!!households!!race and hispanic or latino orig…
 8 S2201_C01_028M margin of error!!total!!households!!race and hispanic or lati…
 9 S2201_C01_029E estimate!!total!!households!!race and hispanic or latino orig…
10 S2201_C01_029M margin of error!!total!!households!!race and hispanic or lati…
# ℹ 98 more rows
…
When working with strings, DO NOT write the new object into the container holding the old object (don’t “overwrite” your data). Strings are incredibly difficult to work with at times, so make sure you can always go back a few steps. This is why I saved the new look-up table with a different name. Personally, I usually append a number to the name of the object when I’m working with strings; then, when I’m sure I have done all the string clean-up I need, I save it with a better name and use rm() to remove the intermediate steps I no longer need.

In the dictionary/look-up table, we have all the information necessary to find the columns we want. However, before we dig into the look-up table, we notice that all of the rows are copied twice: one for estimate, and one for margin of error. For now, we aren’t interested in the margins of error, so let’s remove these rows:

FLmetadata3_df <- 
  FLmetadata2_df %>% 
  mutate(MOE = str_detect(Label, "margin of error")) %>% 
  filter(!MOE) %>% 
  select(-MOE)

# Check
FLmetadata3_df

# A tibble: 230 × 2
   `Column Name`  Label                                                         
   <chr>          <chr>                                                         
 1 GEO_ID         geography                                                     
 2 NAME           geographic area name                                          
 3 S2201_C01_001E estimate!!total!!households                                   
 4 S2201_C01_002E estimate!!total!!households!!with one or more people in the h…
 5 S2201_C01_003E estimate!!total!!households!!no people in the household 60 ye…
 6 S2201_C01_004E estimate!!total!!households!!married-couple family            
 7 S2201_C01_005E estimate!!total!!households!!other family:                    
 8 S2201_C01_006E estimate!!total!!households!!other family:!!male householder,…
 9 S2201_C01_007E estimate!!total!!households!!other family:!!female householde…
10 S2201_C01_008E estimate!!total!!households!!nonfamily households             
# ℹ 220 more rows
…
Sanity Checks

Often we have some idea of a pre-existing relationship in the data; e.g, we know that there should be a clear negative relationship between food stamp use and household income within a ZIP code. If our data does not show something we know to be true, then we check that we have the right data and that we are reading the data dictionary correctly.

Find the “Food Stamps” Metric

We will use the same process as above (mutate() + str_detect() + filter()) to find all the columns that measure food stamp usage as a percentage:

FLmetadata3_df %>% 
  mutate(foodStamps_logi = str_detect(Label, "food stamps")) %>% 
  mutate(percent_logi = str_detect(Label, "percent")) %>% 
  filter(foodStamps_logi & percent_logi) %>% 
  select(-foodStamps_logi, -percent_logi)

# A tibble: 76 × 2
   `Column Name`  Label                                                         
   <chr>          <chr>                                                         
 1 S2201_C04_001E estimate!!percent households receiving food stamps/snap!!hous…
 2 S2201_C04_002E estimate!!percent households receiving food stamps/snap!!hous…
 3 S2201_C04_003E estimate!!percent households receiving food stamps/snap!!hous…
 4 S2201_C04_004E estimate!!percent households receiving food stamps/snap!!hous…
 5 S2201_C04_005E estimate!!percent households receiving food stamps/snap!!hous…
 6 S2201_C04_006E estimate!!percent households receiving food stamps/snap!!hous…
 7 S2201_C04_007E estimate!!percent households receiving food stamps/snap!!hous…
 8 S2201_C04_008E estimate!!percent households receiving food stamps/snap!!hous…
 9 S2201_C04_009E estimate!!percent households receiving food stamps/snap!!hous…
10 S2201_C04_010E estimate!!percent households receiving food stamps/snap!!hous…
# ℹ 66 more rows
…
the median household income for that area.

FLallZIP_df %>% 
  select(
    zcta = NAME,
    # # OLD version:
    # food_stamp_prop = foodStampsColID_char,
    # median_household_income = incomeColID_char
    # # New version:
    food_stamp_prop = all_of(foodStampsColID_char),
    median_household_income = all_of(incomeColID_char)
  ) 

# A tibble: 1,013 × 3
   zcta        food_stamp_prop median_household_income
   <chr>       <chr>           <chr>                  
 1 ZCTA5 32003 3.1             103019                 
 2 ZCTA5 32008 18.3            42802                  
 3 ZCTA5 32009 8.8             65850                  
 4 ZCTA5 32011 13.3            67087                  
 5 ZCTA5 32013 100.0           -                      
 6 ZCTA5 32024 14.8            57636                  
 7 ZCTA5 32025 19.7            47439                  
 8 ZCTA5 32026 -               -                      
 9 ZCTA5 32033 8.7             71360                  
10 ZCTA5 32034 7.3             87047                  
# ℹ 1,003 more rows
…
Warning: There were 2 warnings in `mutate()`.
The first warning was:
ℹ In argument: `food_stamp_prop = as.numeric(food_stamp_prop)`.
Caused by warning:
! NAs introduced by coercion
ℹ Run `dplyr::last_dplyr_warnings()` to see the 1 remaining warning.

incomeSNAP_df

# A tibble: 1,013 × 3
   zcta        food_stamp_prop median_household_income
   <chr>                 <dbl>                   <dbl>
 1 ZCTA5 32003             3.1                  103019
 2 ZCTA5 32008            18.3                   42802
 3 ZCTA5 32009             8.8                   65850
 4 ZCTA5 32011            13.3                   67087
 5 ZCTA5 32013           100                        NA
 6 ZCTA5 32024            14.8                   57636
 7 ZCTA5 32025            19.7                   47439
 8 ZCTA5 32026            NA                        NA
 9 ZCTA5 32033             8.7                   71360
10 ZCTA5 32034             7.3                   87047
# ℹ 1,003 more rows
…
