PHC 6701: R for Data Science - Lesson 7: Lists and Tibbles
…
Exercises

What are some differences between tibbles and data frames that you can find?

Check the help file of the data.frame() function to find out how to preserve character information. What option should you add to the code above?

Last class, we discussed naming conventions. Are the names within my vectors consistent? Why or why not? What might I do to make them better?

Inspecting Tibbles

We already saw how the printing the tibble and caling the str() function can be useful to check the content and the structure of data. Because we want to see something more interesting than our ID card, let’s take a look at the mpg data set from last week.

mpg

# A tibble: 234 × 11
   manufacturer model      displ  year   cyl trans drv     cty   hwy fl    class
   <chr>        <chr>      <dbl> <int> <int> <chr> <chr> <int> <int> <chr> <chr>
 1 audi         a4           1.8  1999     4 auto… f        18    29 p     comp…
 2 audi         a4           1.8  1999     4 manu… f        21    29 p     comp…
 3 audi         a4           2    2008     4 manu… f        20    31 p     comp…
 4 audi         a4           2    2008     4 auto… f        21    30 p     comp…
 5 audi         a4           2.8  1999     6 auto… f        16    26 p     comp…
 6 audi         a4           2.8  1999     6 manu… f        18    26 p     comp…
 7 audi         a4           3.1  2008     6 auto… f        18    27 p     comp…
 8 audi         a4 quattro   1.8  1999     4 manu… 4        18    26 p     comp…
 9 audi         a4 quattro   1.8  1999     4 auto… 4        16    25 p     comp…
10 audi         a4 quattro   2    2008     4 manu… 4        20    28 p     comp…
# ℹ 224 more rows
…
