PHC 6701: R for Data Science - Lesson 4: ggplot and the Layered Grammar of Graphics
…
dplyr: manipulate “tidy” data tables

stringr: operate on character strings

forcats: recode and modify catagorical variables in R, also known as factors (“forcats” is an abbreviation of for categorical variables, and also an anagram of “factors”)

To be completely honest, we could spend the entire semester on these eight packages. However, we will not be able to do that at this juncture. We are not going to cover the forcats package, and we will use some of the time in this semester diving deeper into the “inner workings” of R (we will use the Advanced R textbook for that).

My First ggplot

Now that you have an understanding of how the layered grammar of graphics works (in theory), we can build our own plot. Within the tidyverse, there is an example data set on car manufacturing specifics stored in the object mpg (because it is in the package, you won’t see it in the “Environment” pane).

mpg

# A tibble: 234 × 11
   manufacturer model      displ  year   cyl trans drv     cty   hwy fl    class
   <chr>        <chr>      <dbl> <int> <int> <chr> <chr> <int> <int> <chr> <chr>
 1 audi         a4           1.8  1999     4 auto… f        18    29 p     comp…
 2 audi         a4           1.8  1999     4 manu… f        21    29 p     comp…
 3 audi         a4           2    2008     4 manu… f        20    31 p     comp…
 4 audi         a4           2    2008     4 auto… f        21    30 p     comp…
 5 audi         a4           2.8  1999     6 auto… f        16    26 p     comp…
 6 audi         a4           2.8  1999     6 manu… f        18    26 p     comp…
 7 audi         a4           3.1  2008     6 auto… f        18    27 p     comp…
 8 audi         a4 quattro   1.8  1999     4 manu… 4        18    26 p     comp…
 9 audi         a4 quattro   1.8  1999     4 auto… 4        16    25 p     comp…
10 audi         a4 quattro   2    2008     4 manu… 4        20    28 p     comp…
# ℹ 224 more rows
…
