PHC 6701: R for Data Science - Lesson 9: Data Manipulation with dplyr
…
These functions are all from the dplyr package, which is in the tidyverse. Load it now.

library(tidyverse)

If you get stuck, the dplyr cheat sheet is here: https://www.rstudio.com/wp-content/uploads/2015/02/data-wrangling-cheatsheet.pdf

Example Data

Our example data set has measurements on all flights departing the Greater New York City area in 2013. It has 336,776 unique flights and 19 measurements on those flights. We will use this data set to explore a few of the more commonly-used dplyr functions. Load the nycflights13 package you installed last class:

library(nycflights13)
flights

# A tibble: 336,776 × 19
    year month   day dep_time sched_dep_time dep_delay arr_time sched_arr_time
   <int> <int> <int>    <int>          <int>     <dbl>    <int>          <int>
 1  2013     1     1      517            515         2      830            819
 2  2013     1     1      533            529         4      850            830
 3  2013     1     1      542            540         2      923            850
 4  2013     1     1      544            545        -1     1004           1022
 5  2013     1     1      554            600        -6      812            837
 6  2013     1     1      554            558        -4      740            728
 7  2013     1     1      555            600        -5      913            854
 8  2013     1     1      557            600        -3      709            723
 9  2013     1     1      557            600        -3      838            846
10  2013     1     1      558            600        -2      753            745
# ℹ 336,766 more rows
# ℹ 11 more variables: arr_delay <dbl>, carrier <chr>, flight <int>,
#   tailnum <chr>, origin <chr>, dest <chr>, air_time <dbl>, distance <dbl>,
#   hour <dbl>, minute <dbl>, time_hour <dttm>

Subset Rows with filter()

The filter function takes in the data frame and a logical argument. Rows that return TRUE for that logical argument are returned as a subset of the original data frame. For example, we would like to inspect only flights that happened on 1 January, 2013.

filter(flights, month == 1, day == 1)

# A tibble: 842 × 19
    year month   day dep_time sched_dep_time dep_delay arr_time sched_arr_time
   <int> <int> <int>    <int>          <int>     <dbl>    <int>          <int>
 1  2013     1     1      517            515         2      830            819
 2  2013     1     1      533            529         4      850            830
 3  2013     1     1      542            540         2      923            850
 4  2013     1     1      544            545        -1     1004           1022
 5  2013     1     1      554            600        -6      812            837
 6  2013     1     1      554            558        -4      740            728
 7  2013     1     1      555            600        -5      913            854
 8  2013     1     1      557            600        -3      709            723
 9  2013     1     1      557            600        -3      838            846
10  2013     1     1      558            600        -2      753            745
# ℹ 832 more rows
# ℹ 11 more variables: arr_delay <dbl>, carrier <chr>, flight <int>,
#   tailnum <chr>, origin <chr>, dest <chr>, air_time <dbl>, distance <dbl>,
#   hour <dbl>, minute <dbl>, time_hour <dttm>

This code selects the 842 rows of the flights data frame where the month column is equal to the number 1 (for January) and the day column is also equal to 1. The equivalent code with the pipe operator from last session is almost exactly the same:

flights %>% filter(month == 1, day == 1)

# A tibble: 842 × 19
    year month   day dep_time sched_dep_time dep_delay arr_time sched_arr_time
   <int> <int> <int>    <int>          <int>     <dbl>    <int>          <int>
 1  2013     1     1      517            515         2      830            819
 2  2013     1     1      533            529         4      850            830
 3  2013     1     1      542            540         2      923            850
 4  2013     1     1      544            545        -1     1004           1022
 5  2013     1     1      554            600        -6      812            837
 6  2013     1     1      554            558        -4      740            728
 7  2013     1     1      555            600        -5      913            854
 8  2013     1     1      557            600        -3      709            723
 9  2013     1     1      557            600        -3      838            846
10  2013     1     1      558            600        -2      753            745
# ℹ 832 more rows
# ℹ 11 more variables: arr_delay <dbl>, carrier <chr>, flight <int>,
#   tailnum <chr>, origin <chr>, dest <chr>, air_time <dbl>, distance <dbl>,
#   hour <dbl>, minute <dbl>, time_hour <dttm>

As a review, the pipe turns x %>% f(y) into f(x, y). Pipes allow us to read code from left-to-right and top-to-bottom, rather than inside out with a giant nest of parentheses.

Examples

Find all the flights on Christmas Eve. We’ll use the same code structure as the code for finding all the New Year’s Day flights.

flights %>% filter(month == 12, day == 24)

# A tibble: 761 × 19
    year month   day dep_time sched_dep_time dep_delay arr_time sched_arr_time
   <int> <int> <int>    <int>          <int>     <dbl>    <int>          <int>
 1  2013    12    24        9           2359        10      444            445
 2  2013    12    24      458            500        -2      652            651
 3  2013    12    24      513            515        -2      813            814
 4  2013    12    24      543            540         3      844            850
 5  2013    12    24      546            550        -4     1032           1027
 6  2013    12    24      555            600        -5      851            915
 7  2013    12    24      556            600        -4      845            846
 8  2013    12    24      557            600        -3      908            849
 9  2013    12    24      558            600        -2      827            831
10  2013    12    24      558            600        -2      729            718
# ℹ 751 more rows
# ℹ 11 more variables: arr_delay <dbl>, carrier <chr>, flight <int>,
#   tailnum <chr>, origin <chr>, dest <chr>, air_time <dbl>, distance <dbl>,
#   hour <dbl>, minute <dbl>, time_hour <dttm>

Find all flights during the summer months (June, July, and August).

flights %>% filter(month %in% c(6, 7, 8))

# A tibble: 86,995 × 19
    year month   day dep_time sched_dep_time dep_delay arr_time sched_arr_time
   <int> <int> <int>    <int>          <int>     <dbl>    <int>          <int>
 1  2013     6     1        2           2359         3      341            350
 2  2013     6     1      451            500        -9      624            640
 3  2013     6     1      506            515        -9      715            800
 4  2013     6     1      534            545       -11      800            829
 5  2013     6     1      538            545        -7      925            922
 6  2013     6     1      539            540        -1      832            840
 7  2013     6     1      546            600       -14      850            910
 8  2013     6     1      551            600        -9      828            850
 9  2013     6     1      552            600        -8      647            655
10  2013     6     1      553            600        -7      700            711
# ℹ 86,985 more rows
# ℹ 11 more variables: arr_delay <dbl>, carrier <chr>, flight <int>,
#   tailnum <chr>, origin <chr>, dest <chr>, air_time <dbl>, distance <dbl>,
#   hour <dbl>, minute <dbl>, time_hour <dttm>

Find all flights that did not depart from Newark Liberty.

flights %>% filter(origin != "EWR")

# A tibble: 215,941 × 19
    year month   day dep_time sched_dep_time dep_delay arr_time sched_arr_time
   <int> <int> <int>    <int>          <int>     <dbl>    <int>          <int>
 1  2013     1     1      533            529         4      850            830
 2  2013     1     1      542            540         2      923            850
 3  2013     1     1      544            545        -1     1004           1022
 4  2013     1     1      554            600        -6      812            837
 5  2013     1     1      557            600        -3      709            723
 6  2013     1     1      557            600        -3      838            846
 7  2013     1     1      558            600        -2      753            745
 8  2013     1     1      558            600        -2      849            851
 9  2013     1     1      558            600        -2      853            856
10  2013     1     1      558            600        -2      924            917
# ℹ 215,931 more rows
# ℹ 11 more variables: arr_delay <dbl>, carrier <chr>, flight <int>,
#   tailnum <chr>, origin <chr>, dest <chr>, air_time <dbl>, distance <dbl>,
#   hour <dbl>, minute <dbl>, time_hour <dttm>

Find all JetBlue (“B6”) or Southwest (“WN”) flights.

flights %>% filter(carrier == "B6" | carrier == "WN")

# A tibble: 66,910 × 19
    year month   day dep_time sched_dep_time dep_delay arr_time sched_arr_time
   <int> <int> <int>    <int>          <int>     <dbl>    <int>          <int>
 1  2013     1     1      544            545        -1     1004           1022
 2  2013     1     1      555            600        -5      913            854
 3  2013     1     1      557            600        -3      838            846
 4  2013     1     1      558            600        -2      849            851
 5  2013     1     1      558            600        -2      853            856
 6  2013     1     1      559            559         0      702            706
 7  2013     1     1      600            600         0      851            858
 8  2013     1     1      601            600         1      844            850
 9  2013     1     1      613            610         3      925            921
10  2013     1     1      615            615         0     1039           1100
# ℹ 66,900 more rows
# ℹ 11 more variables: arr_delay <dbl>, carrier <chr>, flight <int>,
#   tailnum <chr>, origin <chr>, dest <chr>, air_time <dbl>, distance <dbl>,
#   hour <dbl>, minute <dbl>, time_hour <dttm>

Find any flights out of LaGuardia that actually left on time.

flights %>% filter(origin == "LGA" & dep_delay <= 0)

# A tibble: 67,819 × 19
    year month   day dep_time sched_dep_time dep_delay arr_time sched_arr_time
   <int> <int> <int>    <int>          <int>     <dbl>    <int>          <int>
 1  2013     1     1      554            600        -6      812            837
 2  2013     1     1      557            600        -3      709            723
 3  2013     1     1      558            600        -2      753            745
 4  2013     1     1      559            600        -1      941            910
 5  2013     1     1      600            600         0      851            858
 6  2013     1     1      600            600         0      837            825
 7  2013     1     1      602            610        -8      812            820
 8  2013     1     1      602            605        -3      821            805
 9  2013     1     1      623            627        -4      933            932
10  2013     1     1      624            630        -6      840            830
# ℹ 67,809 more rows
# ℹ 11 more variables: arr_delay <dbl>, carrier <chr>, flight <int>,
#   tailnum <chr>, origin <chr>, dest <chr>, air_time <dbl>, distance <dbl>,
#   hour <dbl>, minute <dbl>, time_hour <dttm>

Sort Rows with arrange()

The arrange() function takes in a data frame and a set of columns to sort on. We can sort the flights by in increasing order by the day of the year: we sort by month, then by day within month.

flights %>% arrange(year, month, day)

# A tibble: 336,776 × 19
    year month   day dep_time sched_dep_time dep_delay arr_time sched_arr_time
   <int> <int> <int>    <int>          <int>     <dbl>    <int>          <int>
 1  2013     1     1      517            515         2      830            819
 2  2013     1     1      533            529         4      850            830
 3  2013     1     1      542            540         2      923            850
 4  2013     1     1      544            545        -1     1004           1022
 5  2013     1     1      554            600        -6      812            837
 6  2013     1     1      554            558        -4      740            728
 7  2013     1     1      555            600        -5      913            854
 8  2013     1     1      557            600        -3      709            723
 9  2013     1     1      557            600        -3      838            846
10  2013     1     1      558            600        -2      753            745
# ℹ 336,766 more rows
# ℹ 11 more variables: arr_delay <dbl>, carrier <chr>, flight <int>,
#   tailnum <chr>, origin <chr>, dest <chr>, air_time <dbl>, distance <dbl>,
#   hour <dbl>, minute <dbl>, time_hour <dttm>

Also, we can sort the flights by departure delay time.

flights %>% arrange(desc(dep_delay))

# A tibble: 336,776 × 19
    year month   day dep_time sched_dep_time dep_delay arr_time sched_arr_time
   <int> <int> <int>    <int>          <int>     <dbl>    <int>          <int>
 1  2013     1     9      641            900      1301     1242           1530
 2  2013     6    15     1432           1935      1137     1607           2120
 3  2013     1    10     1121           1635      1126     1239           1810
 4  2013     9    20     1139           1845      1014     1457           2210
 5  2013     7    22      845           1600      1005     1044           1815
 6  2013     4    10     1100           1900       960     1342           2211
 7  2013     3    17     2321            810       911      135           1020
 8  2013     6    27      959           1900       899     1236           2226
 9  2013     7    22     2257            759       898      121           1026
10  2013    12     5      756           1700       896     1058           2020
# ℹ 336,766 more rows
# ℹ 11 more variables: arr_delay <dbl>, carrier <chr>, flight <int>,
#   tailnum <chr>, origin <chr>, dest <chr>, air_time <dbl>, distance <dbl>,
#   hour <dbl>, minute <dbl>, time_hour <dttm>

Further, we can combine this with the filter() commmand to sort the American Airlines flights out of JFK on the day before Thanksgiving by their duration. By the way, see how easy it is to chain rather complicated commands together? You might begin to imagine that we are only scratching the surface of what we can do with dplyr…

flights %>%
  filter(carrier == "AA") %>% 
  filter(origin == "JFK") %>% 
  filter(month == 11) %>% 
  filter(day == 27) %>%
  arrange(desc(air_time))

# A tibble: 37 × 19
    year month   day dep_time sched_dep_time dep_delay arr_time sched_arr_time
   <int> <int> <int>    <int>          <int>     <dbl>    <int>          <int>
 1  2013    11    27     1529           1530        -1     1903           1915
 2  2013    11    27      805            800         5     1129           1135
 3  2013    11    27     1740           1745        -5     2103           2125
 4  2013    11    27     1022           1030        -8     1319           1355
 5  2013    11    27      724            730        -6     1058           1050
 6  2013    11    27     1340           1345        -5     1648           1705
 7  2013    11    27     1543           1545        -2     1845           1920
 8  2013    11    27     1849           1850        -1     2209           2220
 9  2013    11    27     1900           1900         0     2229           2215
10  2013    11    27     1141            900       161     1429           1225
# ℹ 27 more rows
# ℹ 11 more variables: arr_delay <dbl>, carrier <chr>, flight <int>,
#   tailnum <chr>, origin <chr>, dest <chr>, air_time <dbl>, distance <dbl>,
#   hour <dbl>, minute <dbl>, time_hour <dttm>

As an aside, look how clean this code looks because of our pipes! Imagine trying to write this as a set of nested functions. Not pretty.

Select and Move Columns with select()

While filter() and arrange() help us select and sort individual observations (rows), the select() function helps us select, rename, or reorder the measurements (columns) of a data frame.

Select Columns that Meet Our Criteria

We first select three columns specifically by their names.

flights %>% select(year, month, day)

# A tibble: 336,776 × 3
    year month   day
   <int> <int> <int>
 1  2013     1     1
 2  2013     1     1
 3  2013     1     1
 4  2013     1     1
 5  2013     1     1
 6  2013     1     1
 7  2013     1     1
 8  2013     1     1
 9  2013     1     1
10  2013     1     1
# ℹ 336,766 more rows

Notice that we only have the three columns we explicitly requested by name and no more. The select() function will drop whatever we don’t ask for by default, but we can change this behaviour by adding the additional everything() argument (we’ll come back to this in the “reordering columns” section).

We could have also specified a range of column names to achieve the same effect.

flights %>% select(year:day)

# A tibble: 336,776 × 3
    year month   day
   <int> <int> <int>
 1  2013     1     1
 2  2013     1     1
 3  2013     1     1
 4  2013     1     1
 5  2013     1     1
 6  2013     1     1
 7  2013     1     1
 8  2013     1     1
 9  2013     1     1
10  2013     1     1
# ℹ 336,766 more rows

If you have used regular expressions or performed string manipulation before, you can also use the following modifiers to the select() function:

Find all the columns with names starting with “dep_”.

flights %>% select(starts_with("dep_"))

# A tibble: 336,776 × 2
   dep_time dep_delay
      <int>     <dbl>
 1      517         2
 2      533         4
 3      542         2
 4      544        -1
 5      554        -6
 6      554        -4
 7      555        -5
 8      557        -3
 9      557        -3
10      558        -2
# ℹ 336,766 more rows

Find all the columns with names ending with “ay”.

flights %>% select(ends_with("ay"))

# A tibble: 336,776 × 3
     day dep_delay arr_delay
   <int>     <dbl>     <dbl>
 1     1         2        11
 2     1         4        20
 3     1         2        33
 4     1        -1       -18
 5     1        -6       -25
 6     1        -4        12
 7     1        -5        19
 8     1        -3       -14
 9     1        -3        -8
10     1        -2         8
# ℹ 336,766 more rows

Find all the columns with names that contain “time”.

flights %>% select(contains("time"))

# A tibble: 336,776 × 6
   dep_time sched_dep_time arr_time sched_arr_time air_time time_hour          
      <int>          <int>    <int>          <int>    <dbl> <dttm>             
 1      517            515      830            819      227 2013-01-01 05:00:00
 2      533            529      850            830      227 2013-01-01 05:00:00
 3      542            540      923            850      160 2013-01-01 05:00:00
 4      544            545     1004           1022      183 2013-01-01 05:00:00
 5      554            600      812            837      116 2013-01-01 06:00:00
 6      554            558      740            728      150 2013-01-01 05:00:00
 7      555            600      913            854      158 2013-01-01 06:00:00
 8      557            600      709            723       53 2013-01-01 06:00:00
 9      557            600      838            846      140 2013-01-01 06:00:00
10      558            600      753            745      138 2013-01-01 06:00:00
# ℹ 336,766 more rows
…
