PHC 6701: R for Data Science - Lesson 9 Supplement: Compare dplyr and base R Subsetting
…
# Find the order of the rows by worst infant mortality to best
worstInfMort_idx <- order(
  gapminder2010_tbldf[["infant_mortality"]],
  decreasing = TRUE
)

# Subset the 2010 data by the first 25 indices in the "worst" vector
gapminderInfMort2010_tbldf <-
  gapminder2010_tbldf[worstInfMort_idx[1:25], ]

# Inspect
gapminderInfMort2010_tbldf

# A tibble: 25 × 10
   country    year infant_mortality life_expectancy fertility population     gdp
   <fct>     <int>            <dbl>           <dbl>     <dbl>      <dbl>   <dbl>
 1 Angola     2010            110.             57.6      6.22   21219954 2.61e10
 2 Sierra L…  2010            107              55        4.94    5775902 1.57e 9
 3 Central …  2010            102.             47.9      4.63    4444973 1.05e 9
 4 Chad       2010             93.6            55.8      6.6    11896380 3.37e 9
 5 Haiti      2010             85.5            32.2      3.35    9999617 3.70e 9
 6 Congo, D…  2010             84.8            58.4      6.25   65938712 6.96e 9
 7 Mali       2010             82.9            59.2      6.84   15167286 4.20e 9
 8 Nigeria    2010             81.5            61.2      6.02  159424742 8.56e10
 9 Equatori…  2010             78.9            58.6      5.14     728710 5.98e 9
10 Cote d'I…  2010             76.9            56.6      4.91   20131707 1.16e10
# ℹ 15 more rows
# ℹ 3 more variables: continent <fct>, region <fct>, gdpPerCap <dbl>

Using dplyr

gapminder_tbldf %>% 
  filter(year == 2010) %>% 
  arrange(desc(infant_mortality)) %>% 
  slice(1:25)

# A tibble: 25 × 10
   country    year infant_mortality life_expectancy fertility population     gdp
   <fct>     <int>            <dbl>           <dbl>     <dbl>      <dbl>   <dbl>
 1 Angola     2010            110.             57.6      6.22   21219954 2.61e10
 2 Sierra L…  2010            107              55        4.94    5775902 1.57e 9
 3 Central …  2010            102.             47.9      4.63    4444973 1.05e 9
 4 Chad       2010             93.6            55.8      6.6    11896380 3.37e 9
 5 Haiti      2010             85.5            32.2      3.35    9999617 3.70e 9
 6 Congo, D…  2010             84.8            58.4      6.25   65938712 6.96e 9
 7 Mali       2010             82.9            59.2      6.84   15167286 4.20e 9
 8 Nigeria    2010             81.5            61.2      6.02  159424742 8.56e10
 9 Equatori…  2010             78.9            58.6      5.14     728710 5.98e 9
10 Cote d'I…  2010             76.9            56.6      4.91   20131707 1.16e10
# ℹ 15 more rows
# ℹ 3 more variables: continent <fct>, region <fct>, gdpPerCap <dbl>
…
